…
There are 8916 patients whose from patients ID 0 to 8915 and each
patient has 60 records from timepoints 0 to 59.

    ## # A tibble: 1 × 2
    ##     min   max
    ##   <int> <int>
    ## 1     0  8915

    ## # A tibble: 8,916 × 2
    ##    PatientID dis_tp
    ##        <int>  <int>
    ##  1         0     60
    ##  2         1     60
    ##  3         2     60
    ##  4         3     60
    ##  5         4     60
    ##  6         5     60
    ##  7         6     60
    ##  8         7     60
    ##  9         8     60
    ## 10         9     60
    ## # ℹ 8,906 more rows
…
